{
  "artifactGenerations" : [ ],
  "artifactId" : "small-artifact-id",
  "groupId" : "org.finos.legend",
  "metamodelDependencies" : [ ],
  "projectDependencies" : [ ],
  "projectId" : "PROD-43195597",
  "projectStructureVersion" : {
    "extensionVersion" : 2,
    "version" : 12
  }
}